<define-tag pagetitle>DLA-1058-1 krb5</define-tag>
<define-tag report_date>2017-8-14</define-tag>
<define-tag secrefs>CVE-2017-11368 Bug#869260</define-tag>
<define-tag packages>krb5</define-tag>
<define-tag isvulnerable>yes</define-tag>
<define-tag fixed>yes</define-tag>
<define-tag fixed-section>no</define-tag>

#use wml::debian::security

