<define-tag pagetitle>DLA-803-1 lcms2</define-tag>
<define-tag report_date>2017-1-26</define-tag>
<define-tag secrefs>CVE-2016-10165 Bug#https://bugs.debian.org/852627</define-tag>
<define-tag packages>lcms2</define-tag>
<define-tag isvulnerable>yes</define-tag>
<define-tag fixed>yes</define-tag>
<define-tag fixed-section>no</define-tag>

#use wml::debian::security

